G04 CAM350 V9.0 (Build 156) Date:  Mon Jul 22 19:58:22 2019 *
G04 Database: C:\1\635\1000000635.cam *
G04 Layer 11: 1000000635-SPB *
%FSLAX25Y25*%
%MOIN*%
%SFA1.000B1.000*%

%MIA0B0*%
%IPPOS*%
%AMMACRO19*
20,1,0.09449,0.03201,-0.03201,-0.03201,0.03201,0.00000*
%
%ADD11C,0.03937*%
%ADD19C,0.03937*%
%ADD27R,0.04400X0.02800*%
%ADD338R,0.01772X0.05709*%
%ADD340R,0.05709X0.01772*%
%ADD346R,0.02992X0.02598*%
%ADD347R,0.02598X0.02992*%
%ADD395R,0.06693X0.10236*%
%ADD479R,0.03937X0.01969*%
%ADD481R,0.01969X0.03937*%
%ADD483R,0.08661X0.02362*%
%ADD485R,0.03150X0.06299*%
%ADD486R,0.02559X0.06693*%
%ADD487R,0.08268X0.11811*%
%ADD488R,0.05512X0.08661*%
%ADD489R,0.04921X0.07874*%
%ADD490R,0.05512X0.09449*%
%ADD491R,0.07874X0.04921*%
%ADD492R,0.12992X0.09449*%
%ADD518R,0.03150X0.02362*%
%ADD519R,0.02362X0.03150*%
%ADD523MACRO19*%
%LN1000000635-SPB*%
%LPD*%
G54D19*
X13780Y13780D03*
X1127953D03*
Y116142D03*
G54D346*
X175000Y69350D03*
Y75650D03*
X190000Y69350D03*
X182500D03*
X190000Y75650D03*
X182500D03*
X232500Y43150D03*
Y36850D03*
X265000Y43150D03*
Y36850D03*
X407500Y35650D03*
Y29350D03*
X415000D03*
Y35650D03*
X507500Y43150D03*
Y36850D03*
Y58150D03*
Y51850D03*
X577500Y118150D03*
Y111850D03*
X622500Y46850D03*
Y53150D03*
X620000Y65650D03*
Y59350D03*
X612500Y111850D03*
Y118150D03*
X602500Y111850D03*
Y118150D03*
X666250Y19400D03*
Y13100D03*
X653750Y11850D03*
Y18150D03*
X660000Y11850D03*
Y18150D03*
G54D491*
X517500Y42618D03*
Y57382D03*
G54D347*
X176850Y82500D03*
Y90000D03*
Y97500D03*
X183150Y82500D03*
Y90000D03*
Y97500D03*
X260650Y82500D03*
X254350D03*
Y90000D03*
X260650D03*
X254350Y97500D03*
X260650D03*
X341850Y20000D03*
Y40000D03*
Y35000D03*
X335650Y82500D03*
X329350D03*
Y90000D03*
X335650D03*
X329350Y97500D03*
X335650D03*
X348150Y20000D03*
Y40000D03*
Y35000D03*
X360650Y60000D03*
X354350D03*
X413150Y22500D03*
X406850D03*
X413150Y15000D03*
X406850D03*
X413150Y45000D03*
X406850D03*
Y50000D03*
X413150D03*
X394350Y60000D03*
X400650D03*
X410650Y82500D03*
X404350D03*
Y90000D03*
X410650D03*
X404350Y97500D03*
X410650D03*
X479350Y82500D03*
Y90000D03*
Y97500D03*
X485650Y82500D03*
X504350D03*
X485650Y90000D03*
X504350D03*
X485650Y97500D03*
X504350D03*
X510650Y82500D03*
Y90000D03*
Y97500D03*
X574350Y82500D03*
X596850Y12500D03*
X580650Y82500D03*
X603150Y12500D03*
X616850Y15000D03*
X608150Y35000D03*
X601850D03*
X623150Y15000D03*
X638150Y80000D03*
X631850D03*
Y87500D03*
X638150D03*
X631850Y97500D03*
X638150D03*
X644350D03*
X650650D03*
X680650Y25000D03*
X674350D03*
X680650Y20000D03*
X674350D03*
X688100Y51250D03*
X694400D03*
X713150Y82500D03*
X706850D03*
Y90000D03*
X713150D03*
X706850Y97500D03*
X713150D03*
X731850Y82500D03*
X738150D03*
X719350Y90000D03*
X725650D03*
Y82500D03*
X719350D03*
X738150Y90000D03*
X731850D03*
X738150Y97500D03*
X731850D03*
X725650D03*
X719350D03*
X806850Y82500D03*
Y90000D03*
Y97500D03*
X813150Y82500D03*
Y90000D03*
Y97500D03*
X881850Y82500D03*
X888150D03*
Y90000D03*
X881850D03*
X888150Y97500D03*
X881850D03*
X919350Y25000D03*
Y45000D03*
Y35000D03*
Y55000D03*
X925650Y25000D03*
X935650Y20000D03*
X929350D03*
X925650Y45000D03*
Y35000D03*
X935650Y40000D03*
X929350D03*
X935650Y30000D03*
X929350D03*
X925650Y55000D03*
X935650Y50000D03*
X929350D03*
X956850Y82500D03*
X963150D03*
Y90000D03*
X956850D03*
X963150Y97500D03*
X956850D03*
X1001850Y82500D03*
X1008150D03*
Y90000D03*
X1001850D03*
X1008150Y97500D03*
X1001850D03*
G54D518*
X1045866Y116535D03*
X1043110Y103937D03*
X1057677Y116535D03*
X1054921Y103937D03*
X1069488Y116535D03*
X1066732Y103937D03*
X1081299Y116535D03*
X1078543Y103937D03*
G54D479*
X527382Y51260D03*
Y55000D03*
Y58740D03*
X537618D03*
Y55000D03*
Y51260D03*
G54D395*
X197598Y60000D03*
X222402D03*
G54D486*
X552500Y85630D03*
Y114370D03*
X562500Y85630D03*
X557500D03*
X567500D03*
Y114370D03*
X562500D03*
X557500D03*
G54D492*
X210000Y14508D03*
Y40492D03*
G54D488*
X600000Y45098D03*
Y69902D03*
X610000D03*
G54D490*
Y45492D03*
G54D487*
X230433Y17106D03*
X284567D03*
X507815Y14606D03*
X547185D03*
G54D489*
X643632Y15000D03*
X628868D03*
G54D27*
X242500Y43800D03*
Y36200D03*
X252500Y43800D03*
Y36200D03*
G54D338*
X643051Y27559D03*
X639902D03*
X636752D03*
Y72441D03*
X639902D03*
X643051D03*
X668248Y27559D03*
X665098D03*
X661949D03*
X658799D03*
X655650D03*
X652500D03*
X649350D03*
X646201D03*
Y72441D03*
X649350D03*
X652500D03*
X655650D03*
X658799D03*
X661949D03*
X665098D03*
X668248D03*
G54D485*
X250118Y28720D03*
X245197D03*
X240276D03*
X269803D03*
X264882D03*
X259961D03*
X255039D03*
X274724D03*
X527500Y26220D03*
X522579D03*
X517657D03*
X537343D03*
X532421D03*
G54D340*
X630059Y34252D03*
Y37402D03*
Y40551D03*
Y43701D03*
Y46850D03*
Y50000D03*
Y53150D03*
Y56299D03*
Y59449D03*
Y62598D03*
Y65748D03*
X674941Y46850D03*
Y43701D03*
Y40551D03*
Y37402D03*
Y34252D03*
Y65748D03*
Y62598D03*
Y59449D03*
Y56299D03*
Y53150D03*
Y50000D03*
G54D483*
X358406Y20000D03*
Y15000D03*
Y25000D03*
Y35000D03*
Y30000D03*
Y40000D03*
Y45000D03*
Y50000D03*
X396594Y15000D03*
Y20000D03*
Y25000D03*
Y30000D03*
Y35000D03*
Y40000D03*
Y45000D03*
Y50000D03*
G54D481*
X903760Y67618D03*
X907500D03*
X911240D03*
Y57382D03*
X907500D03*
X903760D03*
G54D523*
X464410Y24410D03*
Y55590D03*
X495590Y24410D03*
Y55590D03*
G54D519*
X1032283Y82087D03*
Y93898D03*
X1044882Y79331D03*
Y91142D03*
X1079528Y93898D03*
Y82087D03*
X1092126Y91142D03*
Y79331D03*
G54D19*
X13780Y151575D03*
X1127953D03*
Y253937D03*
G54D346*
X175000Y207145D03*
Y213445D03*
X190000Y207145D03*
X182500D03*
X190000Y213445D03*
X182500D03*
X232500Y180945D03*
Y174645D03*
X265000Y180945D03*
Y174645D03*
X407500Y173445D03*
Y167145D03*
X415000D03*
Y173445D03*
X507500Y180945D03*
Y174645D03*
Y195945D03*
Y189645D03*
X577500Y255945D03*
Y249645D03*
X622500Y184645D03*
Y190945D03*
X620000Y203445D03*
Y197145D03*
X612500Y249645D03*
Y255945D03*
X602500Y249645D03*
Y255945D03*
X666250Y157195D03*
Y150895D03*
X653750Y149645D03*
Y155945D03*
X660000Y149645D03*
Y155945D03*
G54D491*
X517500Y180413D03*
Y195177D03*
G54D347*
X176850Y220295D03*
Y227795D03*
Y235295D03*
X183150Y220295D03*
Y227795D03*
Y235295D03*
X260650Y220295D03*
X254350D03*
Y227795D03*
X260650D03*
X254350Y235295D03*
X260650D03*
X341850Y157795D03*
Y177795D03*
Y172795D03*
X335650Y220295D03*
X329350D03*
Y227795D03*
X335650D03*
X329350Y235295D03*
X335650D03*
X348150Y157795D03*
Y177795D03*
Y172795D03*
X360650Y197795D03*
X354350D03*
X413150Y160295D03*
X406850D03*
X413150Y152795D03*
X406850D03*
X413150Y182795D03*
X406850D03*
Y187795D03*
X413150D03*
X394350Y197795D03*
X400650D03*
X410650Y220295D03*
X404350D03*
Y227795D03*
X410650D03*
X404350Y235295D03*
X410650D03*
X479350Y220295D03*
Y227795D03*
Y235295D03*
X485650Y220295D03*
X504350D03*
X485650Y227795D03*
X504350D03*
X485650Y235295D03*
X504350D03*
X510650Y220295D03*
Y227795D03*
Y235295D03*
X574350Y220295D03*
X596850Y150295D03*
X580650Y220295D03*
X603150Y150295D03*
X616850Y152795D03*
X608150Y172795D03*
X601850D03*
X623150Y152795D03*
X638150Y217795D03*
X631850D03*
Y225295D03*
X638150D03*
X631850Y235295D03*
X638150D03*
X644350D03*
X650650D03*
X680650Y162795D03*
X674350D03*
X680650Y157795D03*
X674350D03*
X688100Y189045D03*
X694400D03*
X713150Y220295D03*
X706850D03*
Y227795D03*
X713150D03*
X706850Y235295D03*
X713150D03*
X731850Y220295D03*
X738150D03*
X719350Y227795D03*
X725650D03*
Y220295D03*
X719350D03*
X738150Y227795D03*
X731850D03*
X738150Y235295D03*
X731850D03*
X725650D03*
X719350D03*
X806850Y220295D03*
Y227795D03*
Y235295D03*
X813150Y220295D03*
Y227795D03*
Y235295D03*
X881850Y220295D03*
X888150D03*
Y227795D03*
X881850D03*
X888150Y235295D03*
X881850D03*
X919350Y162795D03*
Y182795D03*
Y172795D03*
Y192795D03*
X925650Y162795D03*
X935650Y157795D03*
X929350D03*
X925650Y182795D03*
Y172795D03*
X935650Y177795D03*
X929350D03*
X935650Y167795D03*
X929350D03*
X925650Y192795D03*
X935650Y187795D03*
X929350D03*
X956850Y220295D03*
X963150D03*
Y227795D03*
X956850D03*
X963150Y235295D03*
X956850D03*
X1001850Y220295D03*
X1008150D03*
Y227795D03*
X1001850D03*
X1008150Y235295D03*
X1001850D03*
G54D518*
X1045866Y254330D03*
X1043110Y241732D03*
X1057677Y254330D03*
X1054921Y241732D03*
X1069488Y254330D03*
X1066732Y241732D03*
X1081299Y254330D03*
X1078543Y241732D03*
G54D479*
X527382Y189055D03*
Y192795D03*
Y196535D03*
X537618D03*
Y192795D03*
Y189055D03*
G54D395*
X197598Y197795D03*
X222402D03*
G54D486*
X552500Y223425D03*
Y252165D03*
X562500Y223425D03*
X557500D03*
X567500D03*
Y252165D03*
X562500D03*
X557500D03*
G54D492*
X210000Y152303D03*
Y178287D03*
G54D488*
X600000Y182893D03*
Y207697D03*
X610000D03*
G54D490*
Y183287D03*
G54D487*
X230433Y154901D03*
X284567D03*
X507815Y152401D03*
X547185D03*
G54D489*
X643632Y152795D03*
X628868D03*
G54D27*
X242500Y181595D03*
Y173995D03*
X252500Y181595D03*
Y173995D03*
G54D338*
X643051Y165354D03*
X639902D03*
X636752D03*
Y210236D03*
X639902D03*
X643051D03*
X668248Y165354D03*
X665098D03*
X661949D03*
X658799D03*
X655650D03*
X652500D03*
X649350D03*
X646201D03*
Y210236D03*
X649350D03*
X652500D03*
X655650D03*
X658799D03*
X661949D03*
X665098D03*
X668248D03*
G54D485*
X250118Y166515D03*
X245197D03*
X240276D03*
X269803D03*
X264882D03*
X259961D03*
X255039D03*
X274724D03*
X527500Y164015D03*
X522579D03*
X517657D03*
X537343D03*
X532421D03*
G54D340*
X630059Y172047D03*
Y175197D03*
Y178346D03*
Y181496D03*
Y184645D03*
Y187795D03*
Y190945D03*
Y194094D03*
Y197244D03*
Y200393D03*
Y203543D03*
X674941Y184645D03*
Y181496D03*
Y178346D03*
Y175197D03*
Y172047D03*
Y203543D03*
Y200393D03*
Y197244D03*
Y194094D03*
Y190945D03*
Y187795D03*
G54D483*
X358406Y157795D03*
Y152795D03*
Y162795D03*
Y172795D03*
Y167795D03*
Y177795D03*
Y182795D03*
Y187795D03*
X396594Y152795D03*
Y157795D03*
Y162795D03*
Y167795D03*
Y172795D03*
Y177795D03*
Y182795D03*
Y187795D03*
G54D481*
X903760Y205413D03*
X907500D03*
X911240D03*
Y195177D03*
X907500D03*
X903760D03*
G54D523*
X464410Y162205D03*
Y193385D03*
X495590Y162205D03*
Y193385D03*
G54D519*
X1032283Y219882D03*
Y231693D03*
X1044882Y217126D03*
Y228937D03*
X1079528Y231693D03*
Y219882D03*
X1092126Y228937D03*
Y217126D03*
G54D19*
X13780Y289371D03*
X1127953D03*
Y391733D03*
G54D346*
X175000Y344941D03*
Y351241D03*
X190000Y344941D03*
X182500D03*
X190000Y351241D03*
X182500D03*
X232500Y318741D03*
Y312441D03*
X265000Y318741D03*
Y312441D03*
X407500Y311241D03*
Y304941D03*
X415000D03*
Y311241D03*
X507500Y318741D03*
Y312441D03*
Y333741D03*
Y327441D03*
X577500Y393741D03*
Y387441D03*
X622500Y322441D03*
Y328741D03*
X620000Y341241D03*
Y334941D03*
X612500Y387441D03*
Y393741D03*
X602500Y387441D03*
Y393741D03*
X666250Y294991D03*
Y288691D03*
X653750Y287441D03*
Y293741D03*
X660000Y287441D03*
Y293741D03*
G54D491*
X517500Y318209D03*
Y332973D03*
G54D347*
X176850Y358091D03*
Y365591D03*
Y373091D03*
X183150Y358091D03*
Y365591D03*
Y373091D03*
X260650Y358091D03*
X254350D03*
Y365591D03*
X260650D03*
X254350Y373091D03*
X260650D03*
X341850Y295591D03*
Y315591D03*
Y310591D03*
X335650Y358091D03*
X329350D03*
Y365591D03*
X335650D03*
X329350Y373091D03*
X335650D03*
X348150Y295591D03*
Y315591D03*
Y310591D03*
X360650Y335591D03*
X354350D03*
X413150Y298091D03*
X406850D03*
X413150Y290591D03*
X406850D03*
X413150Y320591D03*
X406850D03*
Y325591D03*
X413150D03*
X394350Y335591D03*
X400650D03*
X410650Y358091D03*
X404350D03*
Y365591D03*
X410650D03*
X404350Y373091D03*
X410650D03*
X479350Y358091D03*
Y365591D03*
Y373091D03*
X485650Y358091D03*
X504350D03*
X485650Y365591D03*
X504350D03*
X485650Y373091D03*
X504350D03*
X510650Y358091D03*
Y365591D03*
Y373091D03*
X574350Y358091D03*
X596850Y288091D03*
X580650Y358091D03*
X603150Y288091D03*
X616850Y290591D03*
X608150Y310591D03*
X601850D03*
X623150Y290591D03*
X638150Y355591D03*
X631850D03*
Y363091D03*
X638150D03*
X631850Y373091D03*
X638150D03*
X644350D03*
X650650D03*
X680650Y300591D03*
X674350D03*
X680650Y295591D03*
X674350D03*
X688100Y326841D03*
X694400D03*
X713150Y358091D03*
X706850D03*
Y365591D03*
X713150D03*
X706850Y373091D03*
X713150D03*
X731850Y358091D03*
X738150D03*
X719350Y365591D03*
X725650D03*
Y358091D03*
X719350D03*
X738150Y365591D03*
X731850D03*
X738150Y373091D03*
X731850D03*
X725650D03*
X719350D03*
X806850Y358091D03*
Y365591D03*
Y373091D03*
X813150Y358091D03*
Y365591D03*
Y373091D03*
X881850Y358091D03*
X888150D03*
Y365591D03*
X881850D03*
X888150Y373091D03*
X881850D03*
X919350Y300591D03*
Y320591D03*
Y310591D03*
Y330591D03*
X925650Y300591D03*
X935650Y295591D03*
X929350D03*
X925650Y320591D03*
Y310591D03*
X935650Y315591D03*
X929350D03*
X935650Y305591D03*
X929350D03*
X925650Y330591D03*
X935650Y325591D03*
X929350D03*
X956850Y358091D03*
X963150D03*
Y365591D03*
X956850D03*
X963150Y373091D03*
X956850D03*
X1001850Y358091D03*
X1008150D03*
Y365591D03*
X1001850D03*
X1008150Y373091D03*
X1001850D03*
G54D518*
X1045866Y392126D03*
X1043110Y379528D03*
X1057677Y392126D03*
X1054921Y379528D03*
X1069488Y392126D03*
X1066732Y379528D03*
X1081299Y392126D03*
X1078543Y379528D03*
G54D479*
X527382Y326851D03*
Y330591D03*
Y334331D03*
X537618D03*
Y330591D03*
Y326851D03*
G54D395*
X197598Y335591D03*
X222402D03*
G54D486*
X552500Y361221D03*
Y389961D03*
X562500Y361221D03*
X557500D03*
X567500D03*
Y389961D03*
X562500D03*
X557500D03*
G54D492*
X210000Y290099D03*
Y316083D03*
G54D488*
X600000Y320689D03*
Y345493D03*
X610000D03*
G54D490*
Y321083D03*
G54D487*
X230433Y292697D03*
X284567D03*
X507815Y290197D03*
X547185D03*
G54D489*
X643632Y290591D03*
X628868D03*
G54D27*
X242500Y319391D03*
Y311791D03*
X252500Y319391D03*
Y311791D03*
G54D338*
X643051Y303150D03*
X639902D03*
X636752D03*
Y348032D03*
X639902D03*
X643051D03*
X668248Y303150D03*
X665098D03*
X661949D03*
X658799D03*
X655650D03*
X652500D03*
X649350D03*
X646201D03*
Y348032D03*
X649350D03*
X652500D03*
X655650D03*
X658799D03*
X661949D03*
X665098D03*
X668248D03*
G54D485*
X250118Y304311D03*
X245197D03*
X240276D03*
X269803D03*
X264882D03*
X259961D03*
X255039D03*
X274724D03*
X527500Y301811D03*
X522579D03*
X517657D03*
X537343D03*
X532421D03*
G54D340*
X630059Y309843D03*
Y312993D03*
Y316142D03*
Y319292D03*
Y322441D03*
Y325591D03*
Y328741D03*
Y331890D03*
Y335040D03*
Y338189D03*
Y341339D03*
X674941Y322441D03*
Y319292D03*
Y316142D03*
Y312993D03*
Y309843D03*
Y341339D03*
Y338189D03*
Y335040D03*
Y331890D03*
Y328741D03*
Y325591D03*
G54D483*
X358406Y295591D03*
Y290591D03*
Y300591D03*
Y310591D03*
Y305591D03*
Y315591D03*
Y320591D03*
Y325591D03*
X396594Y290591D03*
Y295591D03*
Y300591D03*
Y305591D03*
Y310591D03*
Y315591D03*
Y320591D03*
Y325591D03*
G54D481*
X903760Y343209D03*
X907500D03*
X911240D03*
Y332973D03*
X907500D03*
X903760D03*
G54D523*
X464410Y300001D03*
Y331181D03*
X495590Y300001D03*
Y331181D03*
G54D519*
X1032283Y357678D03*
Y369489D03*
X1044882Y354922D03*
Y366733D03*
X1079528Y369489D03*
Y357678D03*
X1092126Y366733D03*
Y354922D03*
G54D19*
X13780Y427166D03*
X1127953D03*
Y529528D03*
G54D346*
X175000Y482736D03*
Y489036D03*
X190000Y482736D03*
X182500D03*
X190000Y489036D03*
X182500D03*
X232500Y456536D03*
Y450236D03*
X265000Y456536D03*
Y450236D03*
X407500Y449036D03*
Y442736D03*
X415000D03*
Y449036D03*
X507500Y456536D03*
Y450236D03*
Y471536D03*
Y465236D03*
X577500Y531536D03*
Y525236D03*
X622500Y460236D03*
Y466536D03*
X620000Y479036D03*
Y472736D03*
X612500Y525236D03*
Y531536D03*
X602500Y525236D03*
Y531536D03*
X666250Y432786D03*
Y426486D03*
X653750Y425236D03*
Y431536D03*
X660000Y425236D03*
Y431536D03*
G54D491*
X517500Y456004D03*
Y470768D03*
G54D347*
X176850Y495886D03*
Y503386D03*
Y510886D03*
X183150Y495886D03*
Y503386D03*
Y510886D03*
X260650Y495886D03*
X254350D03*
Y503386D03*
X260650D03*
X254350Y510886D03*
X260650D03*
X341850Y433386D03*
Y453386D03*
Y448386D03*
X335650Y495886D03*
X329350D03*
Y503386D03*
X335650D03*
X329350Y510886D03*
X335650D03*
X348150Y433386D03*
Y453386D03*
Y448386D03*
X360650Y473386D03*
X354350D03*
X413150Y435886D03*
X406850D03*
X413150Y428386D03*
X406850D03*
X413150Y458386D03*
X406850D03*
Y463386D03*
X413150D03*
X394350Y473386D03*
X400650D03*
X410650Y495886D03*
X404350D03*
Y503386D03*
X410650D03*
X404350Y510886D03*
X410650D03*
X479350Y495886D03*
Y503386D03*
Y510886D03*
X485650Y495886D03*
X504350D03*
X485650Y503386D03*
X504350D03*
X485650Y510886D03*
X504350D03*
X510650Y495886D03*
Y503386D03*
Y510886D03*
X574350Y495886D03*
X596850Y425886D03*
X580650Y495886D03*
X603150Y425886D03*
X616850Y428386D03*
X608150Y448386D03*
X601850D03*
X623150Y428386D03*
X638150Y493386D03*
X631850D03*
Y500886D03*
X638150D03*
X631850Y510886D03*
X638150D03*
X644350D03*
X650650D03*
X680650Y438386D03*
X674350D03*
X680650Y433386D03*
X674350D03*
X688100Y464636D03*
X694400D03*
X713150Y495886D03*
X706850D03*
Y503386D03*
X713150D03*
X706850Y510886D03*
X713150D03*
X731850Y495886D03*
X738150D03*
X719350Y503386D03*
X725650D03*
Y495886D03*
X719350D03*
X738150Y503386D03*
X731850D03*
X738150Y510886D03*
X731850D03*
X725650D03*
X719350D03*
X806850Y495886D03*
Y503386D03*
Y510886D03*
X813150Y495886D03*
Y503386D03*
Y510886D03*
X881850Y495886D03*
X888150D03*
Y503386D03*
X881850D03*
X888150Y510886D03*
X881850D03*
X919350Y438386D03*
Y458386D03*
Y448386D03*
Y468386D03*
X925650Y438386D03*
X935650Y433386D03*
X929350D03*
X925650Y458386D03*
Y448386D03*
X935650Y453386D03*
X929350D03*
X935650Y443386D03*
X929350D03*
X925650Y468386D03*
X935650Y463386D03*
X929350D03*
X956850Y495886D03*
X963150D03*
Y503386D03*
X956850D03*
X963150Y510886D03*
X956850D03*
X1001850Y495886D03*
X1008150D03*
Y503386D03*
X1001850D03*
X1008150Y510886D03*
X1001850D03*
G54D518*
X1045866Y529921D03*
X1043110Y517323D03*
X1057677Y529921D03*
X1054921Y517323D03*
X1069488Y529921D03*
X1066732Y517323D03*
X1081299Y529921D03*
X1078543Y517323D03*
G54D479*
X527382Y464646D03*
Y468386D03*
Y472126D03*
X537618D03*
Y468386D03*
Y464646D03*
G54D395*
X197598Y473386D03*
X222402D03*
G54D486*
X552500Y499016D03*
Y527756D03*
X562500Y499016D03*
X557500D03*
X567500D03*
Y527756D03*
X562500D03*
X557500D03*
G54D492*
X210000Y427894D03*
Y453878D03*
G54D488*
X600000Y458484D03*
Y483288D03*
X610000D03*
G54D490*
Y458878D03*
G54D487*
X230433Y430492D03*
X284567D03*
X507815Y427992D03*
X547185D03*
G54D489*
X643632Y428386D03*
X628868D03*
G54D27*
X242500Y457186D03*
Y449586D03*
X252500Y457186D03*
Y449586D03*
G54D338*
X643051Y440945D03*
X639902D03*
X636752D03*
Y485827D03*
X639902D03*
X643051D03*
X668248Y440945D03*
X665098D03*
X661949D03*
X658799D03*
X655650D03*
X652500D03*
X649350D03*
X646201D03*
Y485827D03*
X649350D03*
X652500D03*
X655650D03*
X658799D03*
X661949D03*
X665098D03*
X668248D03*
G54D485*
X250118Y442106D03*
X245197D03*
X240276D03*
X269803D03*
X264882D03*
X259961D03*
X255039D03*
X274724D03*
X527500Y439606D03*
X522579D03*
X517657D03*
X537343D03*
X532421D03*
G54D340*
X630059Y447638D03*
Y450788D03*
Y453937D03*
Y457087D03*
Y460236D03*
Y463386D03*
Y466536D03*
Y469685D03*
Y472835D03*
Y475984D03*
Y479134D03*
X674941Y460236D03*
Y457087D03*
Y453937D03*
Y450788D03*
Y447638D03*
Y479134D03*
Y475984D03*
Y472835D03*
Y469685D03*
Y466536D03*
Y463386D03*
G54D483*
X358406Y433386D03*
Y428386D03*
Y438386D03*
Y448386D03*
Y443386D03*
Y453386D03*
Y458386D03*
Y463386D03*
X396594Y428386D03*
Y433386D03*
Y438386D03*
Y443386D03*
Y448386D03*
Y453386D03*
Y458386D03*
Y463386D03*
G54D481*
X903760Y481004D03*
X907500D03*
X911240D03*
Y470768D03*
X907500D03*
X903760D03*
G54D523*
X464410Y437796D03*
Y468976D03*
X495590Y437796D03*
Y468976D03*
G54D519*
X1032283Y495473D03*
Y507284D03*
X1044882Y492717D03*
Y504528D03*
X1079528Y507284D03*
Y495473D03*
X1092126Y504528D03*
Y492717D03*
G54D19*
X13780Y564961D03*
X1127953D03*
Y667323D03*
G54D346*
X175000Y620531D03*
Y626831D03*
X190000Y620531D03*
X182500D03*
X190000Y626831D03*
X182500D03*
X232500Y594331D03*
Y588031D03*
X265000Y594331D03*
Y588031D03*
X407500Y586831D03*
Y580531D03*
X415000D03*
Y586831D03*
X507500Y594331D03*
Y588031D03*
Y609331D03*
Y603031D03*
X577500Y669331D03*
Y663031D03*
X622500Y598031D03*
Y604331D03*
X620000Y616831D03*
Y610531D03*
X612500Y663031D03*
Y669331D03*
X602500Y663031D03*
Y669331D03*
X666250Y570581D03*
Y564281D03*
X653750Y563031D03*
Y569331D03*
X660000Y563031D03*
Y569331D03*
G54D491*
X517500Y593799D03*
Y608563D03*
G54D347*
X176850Y633681D03*
Y641181D03*
Y648681D03*
X183150Y633681D03*
Y641181D03*
Y648681D03*
X260650Y633681D03*
X254350D03*
Y641181D03*
X260650D03*
X254350Y648681D03*
X260650D03*
X341850Y571181D03*
Y591181D03*
Y586181D03*
X335650Y633681D03*
X329350D03*
Y641181D03*
X335650D03*
X329350Y648681D03*
X335650D03*
X348150Y571181D03*
Y591181D03*
Y586181D03*
X360650Y611181D03*
X354350D03*
X413150Y573681D03*
X406850D03*
X413150Y566181D03*
X406850D03*
X413150Y596181D03*
X406850D03*
Y601181D03*
X413150D03*
X394350Y611181D03*
X400650D03*
X410650Y633681D03*
X404350D03*
Y641181D03*
X410650D03*
X404350Y648681D03*
X410650D03*
X479350Y633681D03*
Y641181D03*
Y648681D03*
X485650Y633681D03*
X504350D03*
X485650Y641181D03*
X504350D03*
X485650Y648681D03*
X504350D03*
X510650Y633681D03*
Y641181D03*
Y648681D03*
X574350Y633681D03*
X596850Y563681D03*
X580650Y633681D03*
X603150Y563681D03*
X616850Y566181D03*
X608150Y586181D03*
X601850D03*
X623150Y566181D03*
X638150Y631181D03*
X631850D03*
Y638681D03*
X638150D03*
X631850Y648681D03*
X638150D03*
X644350D03*
X650650D03*
X680650Y576181D03*
X674350D03*
X680650Y571181D03*
X674350D03*
X688100Y602431D03*
X694400D03*
X713150Y633681D03*
X706850D03*
Y641181D03*
X713150D03*
X706850Y648681D03*
X713150D03*
X731850Y633681D03*
X738150D03*
X719350Y641181D03*
X725650D03*
Y633681D03*
X719350D03*
X738150Y641181D03*
X731850D03*
X738150Y648681D03*
X731850D03*
X725650D03*
X719350D03*
X806850Y633681D03*
Y641181D03*
Y648681D03*
X813150Y633681D03*
Y641181D03*
Y648681D03*
X881850Y633681D03*
X888150D03*
Y641181D03*
X881850D03*
X888150Y648681D03*
X881850D03*
X919350Y576181D03*
Y596181D03*
Y586181D03*
Y606181D03*
X925650Y576181D03*
X935650Y571181D03*
X929350D03*
X925650Y596181D03*
Y586181D03*
X935650Y591181D03*
X929350D03*
X935650Y581181D03*
X929350D03*
X925650Y606181D03*
X935650Y601181D03*
X929350D03*
X956850Y633681D03*
X963150D03*
Y641181D03*
X956850D03*
X963150Y648681D03*
X956850D03*
X1001850Y633681D03*
X1008150D03*
Y641181D03*
X1001850D03*
X1008150Y648681D03*
X1001850D03*
G54D518*
X1045866Y667716D03*
X1043110Y655118D03*
X1057677Y667716D03*
X1054921Y655118D03*
X1069488Y667716D03*
X1066732Y655118D03*
X1081299Y667716D03*
X1078543Y655118D03*
G54D479*
X527382Y602441D03*
Y606181D03*
Y609921D03*
X537618D03*
Y606181D03*
Y602441D03*
G54D395*
X197598Y611181D03*
X222402D03*
G54D486*
X552500Y636811D03*
Y665551D03*
X562500Y636811D03*
X557500D03*
X567500D03*
Y665551D03*
X562500D03*
X557500D03*
G54D492*
X210000Y565689D03*
Y591673D03*
G54D488*
X600000Y596279D03*
Y621083D03*
X610000D03*
G54D490*
Y596673D03*
G54D487*
X230433Y568287D03*
X284567D03*
X507815Y565787D03*
X547185D03*
G54D489*
X643632Y566181D03*
X628868D03*
G54D27*
X242500Y594981D03*
Y587381D03*
X252500Y594981D03*
Y587381D03*
G54D338*
X643051Y578740D03*
X639902D03*
X636752D03*
Y623622D03*
X639902D03*
X643051D03*
X668248Y578740D03*
X665098D03*
X661949D03*
X658799D03*
X655650D03*
X652500D03*
X649350D03*
X646201D03*
Y623622D03*
X649350D03*
X652500D03*
X655650D03*
X658799D03*
X661949D03*
X665098D03*
X668248D03*
G54D485*
X250118Y579901D03*
X245197D03*
X240276D03*
X269803D03*
X264882D03*
X259961D03*
X255039D03*
X274724D03*
X527500Y577401D03*
X522579D03*
X517657D03*
X537343D03*
X532421D03*
G54D340*
X630059Y585433D03*
Y588583D03*
Y591732D03*
Y594882D03*
Y598031D03*
Y601181D03*
Y604331D03*
Y607480D03*
Y610630D03*
Y613779D03*
Y616929D03*
X674941Y598031D03*
Y594882D03*
Y591732D03*
Y588583D03*
Y585433D03*
Y616929D03*
Y613779D03*
Y610630D03*
Y607480D03*
Y604331D03*
Y601181D03*
G54D483*
X358406Y571181D03*
Y566181D03*
Y576181D03*
Y586181D03*
Y581181D03*
Y591181D03*
Y596181D03*
Y601181D03*
X396594Y566181D03*
Y571181D03*
Y576181D03*
Y581181D03*
Y586181D03*
Y591181D03*
Y596181D03*
Y601181D03*
G54D481*
X903760Y618799D03*
X907500D03*
X911240D03*
Y608563D03*
X907500D03*
X903760D03*
G54D523*
X464410Y575591D03*
Y606771D03*
X495590Y575591D03*
Y606771D03*
G54D519*
X1032283Y633268D03*
Y645079D03*
X1044882Y630512D03*
Y642323D03*
X1079528Y645079D03*
Y633268D03*
X1092126Y642323D03*
Y630512D03*
G54D19*
X0Y-17717D03*
X1141732D03*
X1149606Y698819D03*
G54D11*
G01X66191Y760335D02*
X63730Y762795D01*
X60039Y764026D01*
X55118D01*
X51427Y762795D01*
X48967Y760335D01*
Y757874D01*
X50197Y755413D01*
X51427Y754183D01*
X53888Y752953D01*
X61270Y750492D01*
X63730Y749262D01*
X64961Y748031D01*
X66191Y745571D01*
Y741880D01*
X63730Y739419D01*
X60039Y738189D01*
X55118D01*
X51427Y739419D01*
X48967Y741880D01*
X80955Y764026D02*
X78494Y762795D01*
X76033Y760335D01*
X74803Y757874D01*
X73573Y754183D01*
Y748031D01*
X74803Y744341D01*
X76033Y741880D01*
X78494Y739419D01*
X80955Y738189D01*
X85876D01*
X88337Y739419D01*
X90797Y741880D01*
X92028Y744341D01*
X93258Y748031D01*
Y754183D01*
X92028Y757874D01*
X90797Y760335D01*
X88337Y762795D01*
X85876Y764026D01*
X80955D01*
X101870D02*
Y738189D01*
Y738189D02*
X116634D01*
X122785Y764026D02*
Y738189D01*
Y764026D02*
X131398D01*
X135089Y762795D01*
X137549Y760335D01*
X138780Y757874D01*
X140010Y754183D01*
Y748031D01*
X138780Y744341D01*
X137549Y741880D01*
X135089Y739419D01*
X131398Y738189D01*
X122785D01*
X148622Y764026D02*
Y738189D01*
Y764026D02*
X164616D01*
X148622Y751722D02*
X158465D01*
X148622Y738189D02*
X164616D01*
X171998Y764026D02*
Y738189D01*
Y764026D02*
X183071D01*
X186762Y762795D01*
X187992Y761565D01*
X189222Y759104D01*
Y756644D01*
X187992Y754183D01*
X186762Y752953D01*
X183071Y751722D01*
X171998D01*
X180610D02*
X189222Y738189D01*
X217520Y764026D02*
Y738189D01*
Y764026D02*
X228593D01*
X232283Y762795D01*
X233514Y761565D01*
X234744Y759104D01*
Y755413D01*
X233514Y752953D01*
X232283Y751722D01*
X228593Y750492D01*
X217520D01*
X249508Y764026D02*
X239665Y738189D01*
X249508Y764026D02*
X259350Y738189D01*
X243356Y746801D02*
X255659D01*
X281496Y760335D02*
X279035Y762795D01*
X275344Y764026D01*
X270423D01*
X266732Y762795D01*
X264272Y760335D01*
Y757874D01*
X265502Y755413D01*
X266732Y754183D01*
X269193Y752953D01*
X276575Y750492D01*
X279035Y749262D01*
X280266Y748031D01*
X281496Y745571D01*
Y741880D01*
X279035Y739419D01*
X275344Y738189D01*
X270423D01*
X266732Y739419D01*
X264272Y741880D01*
X295030Y764026D02*
Y738189D01*
X286417Y764026D02*
X303642D01*
X329478D02*
Y738189D01*
Y764026D02*
X340551D01*
X344242Y762795D01*
X345472Y761565D01*
X346703Y759104D01*
Y756644D01*
X345472Y754183D01*
X344242Y752953D01*
X340551Y751722D01*
X329478D02*
X340551D01*
X344242Y750492D01*
X345472Y749262D01*
X346703Y746801D01*
Y743110D01*
X345472Y740650D01*
X344242Y739419D01*
X340551Y738189D01*
X329478D01*
X361467Y764026D02*
X359006Y762795D01*
X356545Y760335D01*
X355315Y757874D01*
X354085Y754183D01*
Y748031D01*
X355315Y744341D01*
X356545Y741880D01*
X359006Y739419D01*
X361467Y738189D01*
X366388D01*
X368848Y739419D01*
X371309Y741880D01*
X372539Y744341D01*
X373770Y748031D01*
Y754183D01*
X372539Y757874D01*
X371309Y760335D01*
X368848Y762795D01*
X366388Y764026D01*
X361467D01*
X387303D02*
Y738189D01*
X378691Y764026D02*
X395915D01*
X430364Y768947D02*
X427904Y766486D01*
X425443Y762795D01*
X422982Y757874D01*
X421752Y751722D01*
Y746801D01*
X422982Y740650D01*
X425443Y735728D01*
X427904Y732037D01*
X430364Y729577D01*
X474656Y760335D02*
X472195Y762795D01*
X468504Y764026D01*
X463583D01*
X459892Y762795D01*
X457431Y760335D01*
Y757874D01*
X458661Y755413D01*
X459892Y754183D01*
X462352Y752953D01*
X469734Y750492D01*
X472195Y749262D01*
X473425Y748031D01*
X474656Y745571D01*
Y741880D01*
X472195Y739419D01*
X468504Y738189D01*
X463583D01*
X459892Y739419D01*
X457431Y741880D01*
X489419Y764026D02*
X479577Y738189D01*
X489419Y764026D02*
X499262Y738189D01*
X483268Y746801D02*
X495571D01*
X505413Y764026D02*
Y738189D01*
Y764026D02*
X515256Y738189D01*
X525098Y764026D02*
X515256Y738189D01*
X525098Y764026D02*
Y738189D01*
X534941Y764026D02*
Y738189D01*
Y764026D02*
X550935D01*
X534941Y751722D02*
X544783D01*
X534941Y738189D02*
X550935D01*
X593996Y760335D02*
X591535Y762795D01*
X587844Y764026D01*
X582923D01*
X579232Y762795D01*
X576772Y760335D01*
Y757874D01*
X578002Y755413D01*
X579232Y754183D01*
X581693Y752953D01*
X589075Y750492D01*
X591535Y749262D01*
X592766Y748031D01*
X593996Y745571D01*
Y741880D01*
X591535Y739419D01*
X587844Y738189D01*
X582923D01*
X579232Y739419D01*
X576772Y741880D01*
X602608Y764026D02*
Y738189D01*
X628445Y764026D02*
X611220Y738189D01*
Y764026D02*
X628445D01*
X611220Y738189D02*
X628445D01*
X637057Y764026D02*
Y738189D01*
Y764026D02*
X653051D01*
X637057Y751722D02*
X646900D01*
X637057Y738189D02*
X653051D01*
X697343Y757874D02*
X696112Y760335D01*
X693652Y762795D01*
X691191Y764026D01*
X686270D01*
X683809Y762795D01*
X681348Y760335D01*
X680118Y757874D01*
X678888Y754183D01*
Y748031D01*
X680118Y744341D01*
X681348Y741880D01*
X683809Y739419D01*
X686270Y738189D01*
X691191D01*
X693652Y739419D01*
X696112Y741880D01*
X697343Y744341D01*
X712106Y764026D02*
X709646Y762795D01*
X707185Y760335D01*
X705955Y757874D01*
X704724Y754183D01*
Y748031D01*
X705955Y744341D01*
X707185Y741880D01*
X709646Y739419D01*
X712106Y738189D01*
X717028D01*
X719488Y739419D01*
X721949Y741880D01*
X723179Y744341D01*
X724409Y748031D01*
Y754183D01*
X723179Y757874D01*
X721949Y760335D01*
X719488Y762795D01*
X717028Y764026D01*
X712106D01*
X733022D02*
Y738189D01*
Y764026D02*
X744094D01*
X747785Y762795D01*
X749016Y761565D01*
X750246Y759104D01*
Y755413D01*
X749016Y752953D01*
X747785Y751722D01*
X744094Y750492D01*
X733022D01*
X758858Y764026D02*
Y738189D01*
Y764026D02*
X769931D01*
X773622Y762795D01*
X774852Y761565D01*
X776083Y759104D01*
Y755413D01*
X774852Y752953D01*
X773622Y751722D01*
X769931Y750492D01*
X758858D01*
X784695Y764026D02*
Y738189D01*
Y764026D02*
X800689D01*
X784695Y751722D02*
X794537D01*
X784695Y738189D02*
X800689D01*
X808071Y764026D02*
Y738189D01*
Y764026D02*
X819144D01*
X822835Y762795D01*
X824065Y761565D01*
X825295Y759104D01*
Y756644D01*
X824065Y754183D01*
X822835Y752953D01*
X819144Y751722D01*
X808071D01*
X816683D02*
X825295Y738189D01*
X852362Y768947D02*
X854823Y766486D01*
X857283Y762795D01*
X859744Y757874D01*
X860974Y751722D01*
Y746801D01*
X859744Y740650D01*
X857283Y735728D01*
X854823Y732037D01*
X852362Y729577D01*
M02*
